<svg width="48" height="48" viewBox="0 0 48 48" fill="none" xmlns="http://www.w3.org/2000/svg">
<g filter="url(#filter0_b_599_14707)">
<rect width="48" height="48" rx="24" fill="url(#paint0_linear_599_14707)"/>
<path d="M28.44 15.1C26.63 15.1 25.01 15.98 24 17.33C22.99 15.98 21.37 15.1 19.56 15.1C16.49 15.1 14 17.6 14 20.69C14 21.88 14.19 22.98 14.52 24C16.1 29 20.97 31.99 23.38 32.81C23.72 32.93 24.28 32.93 24.62 32.81C27.03 31.99 31.9 29 33.48 24C33.81 22.98 34 21.88 34 20.69C34 17.6 31.51 15.1 28.44 15.1Z" fill="white"/>
<rect x="0.5" y="0.5" width="47" height="47" rx="23.5" stroke="url(#paint1_linear_599_14707)"/>
</g>
<defs>
<filter id="filter0_b_599_14707" x="-7" y="-7" width="62" height="62" filterUnits="userSpaceOnUse" color-interpolation-filters="sRGB">
<feFlood flood-opacity="0" result="BackgroundImageFix"/>
<feGaussianBlur in="BackgroundImageFix" stdDeviation="3.5"/>
<feComposite in2="SourceAlpha" operator="in" result="effect1_backgroundBlur_599_14707"/>
<feBlend mode="normal" in="SourceGraphic" in2="effect1_backgroundBlur_599_14707" result="shape"/>
</filter>
<linearGradient id="paint0_linear_599_14707" x1="7.5" y1="4.5" x2="53" y2="54.5" gradientUnits="userSpaceOnUse">
<stop stop-color="#273446" stop-opacity="0"/>
<stop offset="1" stop-color="#273446"/>
</linearGradient>
<linearGradient id="paint1_linear_599_14707" x1="4.5" y1="2" x2="40.5" y2="40" gradientUnits="userSpaceOnUse">
<stop stop-color="#CCD1D8"/>
<stop offset="1" stop-color="#CCD1D8" stop-opacity="0"/>
</linearGradient>
</defs>
</svg>
