<svg width="16" height="17" viewBox="0 0 16 17" fill="none" xmlns="http://www.w3.org/2000/svg">
<path d="M9.99998 13.78L5.65331 9.43333C5.13998 8.92 5.13998 8.08 5.65331 7.56667L9.99998 3.22" stroke="#A0A8B3" stroke-width="1.5" stroke-miterlimit="10" stroke-linecap="round" stroke-linejoin="round"/>
</svg>
