<svg width="32" height="32" viewBox="0 0 32 32" fill="none" xmlns="http://www.w3.org/2000/svg">
<g filter="url(#filter0_b_1101_3308)">
<rect width="32" height="32" rx="16" fill="url(#paint0_linear_1101_3308)"/>
<path d="M13.4998 24.3333H18.4998C22.6665 24.3333 24.3332 22.6667 24.3332 18.5V13.5C24.3332 9.33332 22.6665 7.66666 18.4998 7.66666H13.4998C9.33317 7.66666 7.6665 9.33332 7.6665 13.5V18.5C7.6665 22.6667 9.33317 24.3333 13.4998 24.3333Z" stroke="white" stroke-width="1.5" stroke-linecap="round" stroke-linejoin="round"/>
<path d="M20.7983 18.6567C20.3161 18.8744 19.7638 18.9833 19.1416 18.9833C18.255 18.9833 17.5783 18.75 17.1116 18.2833C16.645 17.8089 16.4116 17.1283 16.4116 16.2417C16.4116 15.3317 16.6566 14.6472 17.1466 14.1883C17.6444 13.7294 18.325 13.5 19.1883 13.5C19.5305 13.5 19.8261 13.5272 20.075 13.5817C20.3238 13.6283 20.565 13.7061 20.7983 13.815V14.8417C20.3938 14.6394 19.9427 14.5383 19.445 14.5383C18.2938 14.5383 17.7183 15.1061 17.7183 16.2417C17.7183 16.825 17.8544 17.2567 18.1266 17.5367C18.3988 17.8089 18.8344 17.945 19.4333 17.945C19.8766 17.945 20.3316 17.8322 20.7983 17.6067V18.6567Z" fill="white"/>
<path d="M15.3867 18.6567C14.9044 18.8744 14.3522 18.9833 13.73 18.9833C12.8433 18.9833 12.1667 18.75 11.7 18.2833C11.2333 17.8089 11 17.1283 11 16.2417C11 15.3317 11.245 14.6472 11.735 14.1883C12.2328 13.7294 12.9133 13.5 13.7767 13.5C14.1189 13.5 14.4144 13.5272 14.6633 13.5817C14.9122 13.6283 15.1533 13.7061 15.3867 13.815V14.8417C14.9822 14.6394 14.5311 14.5383 14.0333 14.5383C12.8822 14.5383 12.3067 15.1061 12.3067 16.2417C12.3067 16.825 12.4428 17.2567 12.715 17.5367C12.9872 17.8089 13.4228 17.945 14.0217 17.945C14.465 17.945 14.92 17.8322 15.3867 17.6067V18.6567Z" fill="white"/>
<rect x="0.5" y="0.5" width="31" height="31" rx="15.5" stroke="url(#paint1_linear_1101_3308)"/>
</g>
<defs>
<filter id="filter0_b_1101_3308" x="-7" y="-7" width="46" height="46" filterUnits="userSpaceOnUse" color-interpolation-filters="sRGB">
<feFlood flood-opacity="0" result="BackgroundImageFix"/>
<feGaussianBlur in="BackgroundImageFix" stdDeviation="3.5"/>
<feComposite in2="SourceAlpha" operator="in" result="effect1_backgroundBlur_1101_3308"/>
<feBlend mode="normal" in="SourceGraphic" in2="effect1_backgroundBlur_1101_3308" result="shape"/>
</filter>
<linearGradient id="paint0_linear_1101_3308" x1="2.28571" y1="-6.32587e-07" x2="31.1503" y2="30.3386" gradientUnits="userSpaceOnUse">
<stop stop-color="#273446" stop-opacity="0"/>
<stop offset="1" stop-color="#273446"/>
</linearGradient>
<linearGradient id="paint1_linear_1101_3308" x1="3" y1="1.33333" x2="27" y2="26.6667" gradientUnits="userSpaceOnUse">
<stop stop-color="#CCD1D8"/>
<stop offset="1" stop-color="#CCD1D8" stop-opacity="0"/>
</linearGradient>
</defs>
</svg>
